*** Darwin 1x1 ***
Turn = 0.
  0
0 r

Turn = 2.
  0
0 r

Turn = 4.
  0
0 r

Turn = 6.
  0
0 r

Turn = 8.
  0
0 r

Turn = 10.
  0
0 r

*** Darwin 25x16 ***
Turn = 0.
  0123456789012345
0 .t.h............
1 ..............f.
2 ............t...
3 ................
4 .h..............
5 ................
6 ................
7 .t.........f....
8 ....h...........
9 ................
0 ................
1 ................
2 ................
3 ................
4 ................
5 ..........f.....
6 ................
7 ................
8 ................
9 ................
0 ................
1 ................
2 ................
3 ................
4 ................

Turn = 5.
  0123456789012345
0 .t......h.......
1 ..............f.
2 ............t...
3 ................
4 h...............
5 ................
6 ................
7 .t.........f....
8 ................
9 ................
0 ................
1 ................
2 ................
3 ....h...........
4 ................
5 ..........f.....
6 ................
7 ................
8 ................
9 ................
0 ................
1 ................
2 ................
3 ................
4 ................

Turn = 10.
  0123456789012345
0 .t...........h..
1 ..............f.
2 ............t...
3 ................
4 h...............
5 ................
6 ................
7 .t.........f....
8 ................
9 ................
0 ................
1 ................
2 ................
3 ................
4 ................
5 ..........f.....
6 ................
7 ................
8 ....h...........
9 ................
0 ................
1 ................
2 ................
3 ................
4 ................

Turn = 15.
  0123456789012345
0 .t.............h
1 ..............f.
2 ............t...
3 ................
4 h...............
5 ................
6 ................
7 .t.........f....
8 ................
9 ................
0 ................
1 ................
2 ................
3 ................
4 ................
5 ..........f.....
6 ................
7 ................
8 ................
9 ................
0 ................
1 ................
2 ................
3 ....h...........
4 ................

Turn = 20.
  0123456789012345
0 .t.............h
1 ..............f.
2 ............t...
3 ................
4 h...............
5 ................
6 ................
7 .t.........f....
8 ................
9 ................
0 ................
1 ................
2 ................
3 ................
4 ................
5 ..........f.....
6 ................
7 ................
8 ................
9 ................
0 ................
1 ................
2 ................
3 ................
4 ....h...........

Turn = 25.
  0123456789012345
0 .t.............h
1 ..............f.
2 ............t...
3 ................
4 h...............
5 ................
6 ................
7 .t.........f....
8 ................
9 ................
0 ................
1 ................
2 ................
3 ................
4 ................
5 ..........f.....
6 ................
7 ................
8 ................
9 ................
0 ................
1 ................
2 ................
3 ................
4 ....h...........

*** Darwin 25x20 ***
Turn = 0.
  01234567890123456789
0 ....................
1 ..r.........f.......
2 ....................
3 ....................
4 ....................
5 t...................
6 .....f.........f....
7 ....................
8 ....................
9 .t..................
0 f...................
1 ....................
2 ....................
3 t...................
4 ....................
5 ....................
6 .............t......
7 ....................
8 .....f..............
9 ....................
0 .......h.......t....
1 .........f.......f..
2 .t..................
3 ....................
4 ............f......f

Turn = 8.
  01234567890123456789
0 ....................
1 ............f.......
2 ....................
3 ....................
4 ....................
5 t...................
6 .....f.........f....
7 ....................
8 ....................
9 .tr.................
0 f...................
1 ....................
2 ....................
3 t...................
4 ....................
5 ....................
6 .............t......
7 ....................
8 .....f..............
9 ....................
0 h..............t....
1 .........f.......f..
2 .t..................
3 ....................
4 ............f......f

Turn = 16.
  01234567890123456789
0 ....................
1 ............f.......
2 ....................
3 ....................
4 ....................
5 t...................
6 .....f.........f....
7 ....................
8 ....................
9 .t..................
0 f...................
1 ....................
2 ....................
3 t...................
4 ....................
5 ....................
6 .............t......
7 ..r.................
8 .....f..............
9 ....................
0 h..............t....
1 .........f.......f..
2 .t..................
3 ....................
4 ............f......f

Turn = 24.
  01234567890123456789
0 ....................
1 ............f.......
2 ....................
3 ....................
4 ....................
5 t...................
6 .....f.........f....
7 ....................
8 ....................
9 .t..................
0 f...................
1 ....................
2 ....................
3 t...................
4 ....................
5 ....................
6 .............t......
7 ....................
8 .....f..............
9 ....................
0 h..............t....
1 .........f.......f..
2 .t..................
3 ....................
4 ..r.........f......f

Turn = 32.
  01234567890123456789
0 ....................
1 ............f.......
2 ....................
3 ....................
4 ....................
5 t...................
6 .....f.........f....
7 ....................
8 ....................
9 .t..................
0 f...................
1 ....................
2 ....................
3 t...................
4 ....................
5 ....................
6 .............t......
7 ....................
8 .....f..............
9 ....................
0 h..............t....
1 r........f.......f..
2 .t..................
3 ....................
4 ............f......f

*** Darwin 10x23 ***
Turn = 0.
  01234567890123456789012
0 .....................h.
1 ......h................
2 .....r.................
3 ................t.....h
4 .............r.........
5 .................t..r..
6 h.........h............
7 ......f............t...
8 .....hf................
9 .......................

Turn = 1.
  01234567890123456789012
0 .....................h.
1 .....r.................
2 ......h...............h
3 .............r..t......
4 .......................
5 .................t...r.
6 .........h.............
7 h....hf............t...
8 ......f................
9 .......................

Turn = 2.
  01234567890123456789012
0 .....r...............h.
1 ......................h
2 .............r.........
3 ......h.........t......
4 .......................
5 .................t....r
6 .....h..h..............
7 ......f............t...
8 h.....f................
9 .......................

Turn = 3.
  01234567890123456789012
0 .....r...............hh
1 .............r.........
2 .......................
3 ................t......
4 ......h................
5 .....h...........t....r
6 .......h...............
7 ......f............t...
8 ......f................
9 h......................

Turn = 4.
  01234567890123456789012
0 ......r......r.......hh
1 .......................
2 .......................
3 ................t......
4 .....h................r
5 ......h..........t.....
6 ......h................
7 ......f............t...
8 ......f................
9 h......................

Turn = 5.
  01234567890123456789012
0 .......r.....r.......hh
1 .......................
2 .......................
3 .....h..........t.....r
4 .......................
5 ......h..........t.....
6 .....h.................
7 ......f............t...
8 ......f................
9 h......................

Turn = 6.
  01234567890123456789012
0 ........r.....r......hh
1 .......................
2 .....h................r
3 ................t......
4 .......................
5 .................t.....
6 ....h.h................
7 ......f............t...
8 ......f................
9 h......................

Turn = 7.
  01234567890123456789012
0 .........r.....r.....hh
1 .....h................r
2 .......................
3 ................t......
4 .......................
5 .................t.....
6 ...h..h................
7 ......f............t...
8 ......f................
9 h......................

Turn = 8.
  01234567890123456789012
0 .....h....r.....r....hr
1 ......................r
2 .......................
3 ................t......
4 .......................
5 .................t.....
6 ..h...h................
7 ......f............t...
8 ......f................
9 h......................

Turn = 9.
  01234567890123456789012
0 .....h.....r.....r...hr
1 ......................r
2 .......................
3 ................t......
4 .......................
5 .................t.....
6 .h....h................
7 ......f............t...
8 ......f................
9 h......................

Turn = 10.
  01234567890123456789012
0 .....h......r.....r..hr
1 ......................r
2 .......................
3 ................t......
4 .......................
5 .................t.....
6 h.....h................
7 ......f............t...
8 ......f................
9 h......................

Turn = 11.
  01234567890123456789012
0 .....h.......r.....r.hr
1 ......................r
2 .......................
3 ................t......
4 .......................
5 .................t.....
6 h.....h................
7 ......f............t...
8 ......f................
9 h......................

Turn = 12.
  01234567890123456789012
0 .....h........r.....rhr
1 ......................r
2 .......................
3 ................t......
4 .......................
5 .................t.....
6 h.....h................
7 ......f............t...
8 ......f................
9 h......................

Turn = 13.
  01234567890123456789012
0 .....h.........r....rrr
1 ......................r
2 .......................
3 ................t......
4 .......................
5 .................t.....
6 h.....h................
7 ......f............t...
8 ......f................
9 h......................

Turn = 14.
  01234567890123456789012
0 .....h..........r...rrr
1 ......................r
2 .......................
3 ................t......
4 .......................
5 .................t.....
6 h.....h................
7 ......f............t...
8 ......f................
9 h......................

Turn = 15.
  01234567890123456789012
0 .....h...........r...rr
1 ....................r.r
2 .......................
3 ................t......
4 .......................
5 .................t.....
6 h.....h................
7 ......f............t...
8 ......f................
9 h......................

*** Darwin 28x26 ***
Turn = 0.
  01234567890123456789012345
0 ..........................
1 ..........................
2 ....................f.....
3 ..........................
4 ..........................
5 ....................r.....
6 ..........................
7 .................r........
8 ..........................
9 ..........................
0 .............f............
1 ..........................
2 ..........................
3 ...................f......
4 .........................f
5 .........................t
6 ..........................
7 ..........................
8 ..........................
9 ............t.....t.t.....
0 ..........................
1 ....................h.....
2 ...........h.........f...h
3 ..........................
4 ..........................
5 ..........................
6 ..........................
7 ......h...................

Turn = 4.
  01234567890123456789012345
0 ..........................
1 ..........................
2 ....................rr....
3 ..........................
4 ..........................
5 ..........................
6 ..........................
7 ..........................
8 ..........................
9 ..........................
0 .............f............
1 .................r........
2 ..........................
3 ...................f......
4 .........................t
5 .........................t
6 ..........................
7 ..........................
8 ..........................
9 ............t.....t.t.....
0 ....................h.....
1 ..........................
2 ...............h.....f....
3 ..........................
4 ..........................
5 ..........................
6 .........................h
7 ..........h...............

Turn = 8.
  01234567890123456789012345
0 .....................r....
1 ..........................
2 .........................r
3 ..........................
4 ..........................
5 ..........................
6 ..........................
7 ..........................
8 ..........................
9 ..........................
0 .............f............
1 ..........................
2 ..........................
3 ...................f......
4 .........................t
5 .................r.......t
6 ..........................
7 ..........................
8 ..........................
9 ............t.....t.t.....
0 ....................t.....
1 ..........................
2 ...................h.f....
3 ..........................
4 ..........................
5 ..........................
6 ..........................
7 ..............h..........h

Turn = 12.
  01234567890123456789012345
0 ........................rr
1 ..........................
2 ..........................
3 ..........................
4 ..........................
5 ..........................
6 ..........................
7 ..........................
8 ..........................
9 ..........................
0 .............f............
1 ..........................
2 ..........................
3 ...................f......
4 .........................t
5 .........................t
6 ..........................
7 ..........................
8 ..........................
9 ............t....rt.t.....
0 ....................t.....
1 ..........................
2 ....................hf....
3 ..........................
4 ..........................
5 ..........................
6 ..........................
7 ..................h......h

Turn = 16.
  01234567890123456789012345
0 ..........................
1 ..........................
2 ..........................
3 .........................r
4 ........................r.
5 ..........................
6 ..........................
7 ..........................
8 ..........................
9 ..........................
0 .............f............
1 ..........................
2 ..........................
3 ...................f......
4 .........................t
5 .........................t
6 ..........................
7 ..........................
8 ..........................
9 ............t.....t.t.....
0 ....................t.....
1 ..........................
2 ....................hf....
3 .................r........
4 ..........................
5 ..........................
6 ..........................
7 ......................h..h

Turn = 20.
  01234567890123456789012345
0 ..........................
1 ..........................
2 ..........................
3 ..........................
4 ..........................
5 ..........................
6 ..........................
7 .........................r
8 ........................r.
9 ..........................
0 .............f............
1 ..........................
2 ..........................
3 ...................f......
4 .........................t
5 .........................t
6 ..........................
7 ..........................
8 ..........................
9 ............t.....t.t.....
0 ....................t.....
1 ..........................
2 ....................hf....
3 ..........................
4 ..........................
5 ..........................
6 ..........................
7 .................r......hh

Turn = 24.
  01234567890123456789012345
0 ..........................
1 ..........................
2 ..........................
3 ..........................
4 ..........................
5 ..........................
6 ..........................
7 ..........................
8 ..........................
9 ..........................
0 .............f............
1 .........................r
2 ........................r.
3 ...................f......
4 .........................t
5 .........................t
6 ..........................
7 ..........................
8 ..........................
9 ............t.....t.t.....
0 ....................t.....
1 ..........................
2 ....................hf....
3 ..........................
4 ..........................
5 ..........................
6 ..........................
7 ..............r.........hh

Turn = 28.
  01234567890123456789012345
0 ..........................
1 ..........................
2 ..........................
3 ..........................
4 ..........................
5 ..........................
6 ..........................
7 ..........................
8 ..........................
9 ..........................
0 .............f............
1 ..........................
2 ..........................
3 ...................f.....r
4 .........................t
5 .........................t
6 ........................r.
7 ..........................
8 ..........................
9 ............t.....t.t.....
0 ....................t.....
1 ..........................
2 ....................hf....
3 ..........................
4 ..........................
5 ..........................
6 ..........................
7 ..........r.............hh

*** Darwin 27x11 ***
Turn = 0.
  01234567890
0 ...........
1 ...........
2 .....t.....
3 ...........
4 .t.........
5 ..........h
6 ...........
7 ...........
8 ...........
9 ..h........
0 ...........
1 ...........
2 ...........
3 r..........
4 ...........
5 ...........
6 ...........
7 ...........
8 ...........
9 ...........
0 h..........
1 ...........
2 ......t....
3 ...........
4 ...........
5 ....f......
6 ...........

Turn = 6.
  01234567890
0 ...........
1 ...........
2 .....t.....
3 ...........
4 .t.........
5 ....h......
6 ...........
7 ...........
8 ...........
9 ........h..
0 ...........
1 ...........
2 ...........
3 ...........
4 ...........
5 ...........
6 ...........
7 ...........
8 ...........
9 r..........
0 ......h....
1 ...........
2 ......t....
3 ...........
4 ...........
5 ....f......
6 ...........

Turn = 12.
  01234567890
0 ...........
1 ...........
2 .....t.....
3 ...........
4 .t.........
5 h..........
6 ...........
7 ...........
8 ...........
9 ..........h
0 ...........
1 ...........
2 ...........
3 ...........
4 ...........
5 ...........
6 ...........
7 ...........
8 ...........
9 ...........
0 ..........h
1 ...........
2 ......t....
3 ...........
4 ...........
5 r...f......
6 ...........

Turn = 18.
  01234567890
0 ...........
1 ...........
2 .....t.....
3 ...........
4 .t.........
5 h..........
6 ...........
7 ...........
8 ...........
9 ..........h
0 ...........
1 ...........
2 ...........
3 ...........
4 ...........
5 ...........
6 ...........
7 ...........
8 ...........
9 ...........
0 ..........h
1 ...........
2 ......t....
3 ...........
4 ...........
5 r...f......
6 ...........

Turn = 24.
  01234567890
0 ...........
1 ...........
2 .....t.....
3 ...........
4 .t.........
5 h..........
6 ...........
7 ...........
8 ...........
9 ..........h
0 ...........
1 ...........
2 ...........
3 ...........
4 ...........
5 ...........
6 ...........
7 ...........
8 ...........
9 r..........
0 ..........h
1 ...........
2 ......t....
3 ...........
4 ...........
5 ....f......
6 ...........

*** Darwin 2x2 ***
Turn = 0.
  01
0 hh
1 hh

Turn = 1.
  01
0 hh
1 hh

Turn = 2.
  01
0 hh
1 hh

Turn = 3.
  01
0 hh
1 hh

Turn = 4.
  01
0 hh
1 hh

Turn = 5.
  01
0 hh
1 hh

*** Darwin 24x30 ***
Turn = 0.
  012345678901234567890123456789
0 ..............................
1 ..............................
2 ..............................
3 .....f........................
4 ...........................r..
5 ..............................
6 ..............................
7 .....................h........
8 ........t.....................
9 ..............................
0 ..............................
1 ............f...........f.....
2 ..............................
3 ..............................
4 ..h....................h......
5 ..............................
6 ..............................
7 ..............................
8 ..............................
9 ..............................
0 .......................h......
1 ..............................
2 .......f......................
3 ..............................

Turn = 7.
  012345678901234567890123456789
0 ..............................
1 ..............................
2 ..............................
3 .....f........................
4 ..............................
5 ..............................
6 ..............................
7 .......................h....h.
8 ........t.....................
9 ..............................
0 ..............................
1 ............f...........f..r..
2 ..............................
3 ..............................
4 h.............................
5 ..............................
6 ..............................
7 ..............................
8 ..............................
9 ..............................
0 ..............................
1 ..............................
2 .......f......................
3 .......................h......

Turn = 14.
  012345678901234567890123456789
0 .......................h......
1 ..............................
2 ..............................
3 .....f........................
4 ..............................
5 ..............................
6 ..............................
7 .............................h
8 ........t.....................
9 ..............................
0 ..............................
1 ............f...........f.....
2 ..............................
3 ..............................
4 h.............................
5 ..............................
6 ..............................
7 ..............................
8 ...........................r..
9 ..............................
0 ..............................
1 ..............................
2 .......f......................
3 .......................h......

Turn = 21.
  012345678901234567890123456789
0 .......................h......
1 ..............................
2 ..............................
3 .....f........................
4 ..............................
5 ..............................
6 ..............................
7 .............................h
8 ........t.....................
9 ..............................
0 ..............................
1 ............f...........f.....
2 ..............................
3 ..............................
4 h.............................
5 ..............................
6 ..............................
7 ..............................
8 ..............................
9 ..............................
0 ..............................
1 ..............................
2 .......f......................
3 .......................h..r...

Turn = 28.
  012345678901234567890123456789
0 .......................h......
1 ..............................
2 ..............................
3 .....f........................
4 ..............................
5 ..............................
6 ..............................
7 .............................h
8 ........t.....................
9 ..............................
0 ..............................
1 ............f...........f.....
2 ..............................
3 ..............................
4 h.............................
5 ..............................
6 ..............................
7 ..............................
8 ..............................
9 ..............................
0 ........................r.....
1 ..............................
2 .......f......................
3 ......................r.......

*** Darwin 20x15 ***
Turn = 0.
  012345678901234
0 ...f...........
1 ..t............
2 .........h.....
3 .r.............
4 ...............
5 ......f........
6 ...............
7 .h.............
8 ...r...........
9 ...............
0 ...............
1 ...............
2 .....h.........
3 ..........r....
4 ...............
5 ...............
6 ...............
7 ...............
8 ...............
9 ...f..h........

Turn = 2.
  012345678901234
0 ...f.....h.....
1 ..t............
2 ...............
3 ...............
4 ...............
5 .r....f........
6 .h.r...........
7 ...............
8 ...............
9 ...............
0 .....h.........
1 ...............
2 ...............
3 ............r..
4 ...............
5 ...............
6 ...............
7 ...............
8 ...............
9 ...fh..........

Turn = 4.
  012345678901234
0 ...f.....h.....
1 ..t............
2 ...............
3 ...............
4 ...r...........
5 .r....f........
6 ..r............
7 ...............
8 .....h.........
9 ...............
0 ...............
1 ...............
2 ...............
3 ..............r
4 ...............
5 ...............
6 ...............
7 ...............
8 ...............
9 ...fh..........

Turn = 6.
  012345678901234
0 ...f.....h.....
1 ..t............
2 ...r...........
3 ...............
4 ...............
5 ...r..f........
6 ....rh.........
7 ...............
8 ...............
9 ...............
0 ...............
1 ...............
2 ...............
3 ...............
4 ..............r
5 ...............
6 ...............
7 ...............
8 ...............
9 ...fh..........

Turn = 8.
  012345678901234
0 ...r.....h.....
1 ..tr...........
2 ...............
3 ...............
4 .....r.........
5 ....r.f........
6 .....r.........
7 ...............
8 ...............
9 ...............
0 ...............
1 ...............
2 ...............
3 ...............
4 ...............
5 ...............
6 ..............r
7 ...............
8 ...............
9 ...fh..........

Turn = 10.
  012345678901234
0 ....r....h.....
1 ..tt...........
2 .....r.........
3 ...............
4 ...............
5 ......f........
6 .......r.......
7 ....r..........
8 ...............
9 ...............
0 ...............
1 ...............
2 ...............
3 ...............
4 ...............
5 ...............
6 ...............
7 ...............
8 ..............r
9 ...fh..........

Turn = 12.
  012345678901234
0 .....rr..h.....
1 ..tt...........
2 ...............
3 ...............
4 ...............
5 ......f........
6 .........r.....
7 ...............
8 ...............
9 ....r..........
0 ...............
1 ...............
2 ...............
3 ...............
4 ...............
5 ...............
6 ...............
7 ...............
8 ...............
9 ...fh.........r

*** Darwin 28x22 ***
Turn = 0.
  0123456789012345678901
0 ......................
1 ...........t..........
2 ......................
3 ......................
4 ......................
5 .............r........
6 ......................
7 ......................
8 ......................
9 ......................
0 .....h................
1 ......................
2 ......................
3 ......................
4 ....f.................
5 ......................
6 ......................
7 ......................
8 .........f............
9 ......................
0 ......................
1 ......................
2 ......................
3 ...................f..
4 ......................
5 ......................
6 ......................
7 ......................

Turn = 5.
  0123456789012345678901
0 ......................
1 ...........t..........
2 ......................
3 ......................
4 ......................
5 ......................
6 ......................
7 ......................
8 ......................
9 ......................
0 h............r........
1 ......................
2 ......................
3 ......................
4 ....f.................
5 ......................
6 ......................
7 ......................
8 .........f............
9 ......................
0 ......................
1 ......................
2 ......................
3 ...................f..
4 ......................
5 ......................
6 ......................
7 ......................

Turn = 10.
  0123456789012345678901
0 ......................
1 ...........t..........
2 ......................
3 ......................
4 ......................
5 ......................
6 ......................
7 ......................
8 ......................
9 ......................
0 h.....................
1 ......................
2 ......................
3 ......................
4 ....f.................
5 .............r........
6 ......................
7 ......................
8 .........f............
9 ......................
0 ......................
1 ......................
2 ......................
3 ...................f..
4 ......................
5 ......................
6 ......................
7 ......................

Turn = 15.
  0123456789012345678901
0 ......................
1 ...........t..........
2 ......................
3 ......................
4 ......................
5 ......................
6 ......................
7 ......................
8 ......................
9 ......................
0 h.....................
1 ......................
2 ......................
3 ......................
4 ....f.................
5 ......................
6 ......................
7 ......................
8 .........f............
9 ......................
0 .............r........
1 ......................
2 ......................
3 ...................f..
4 ......................
5 ......................
6 ......................
7 ......................

Turn = 20.
  0123456789012345678901
0 ......................
1 ...........t..........
2 ......................
3 ......................
4 ......................
5 ......................
6 ......................
7 ......................
8 ......................
9 ......................
0 h.....................
1 ......................
2 ......................
3 ......................
4 ....f.................
5 ......................
6 ......................
7 ......................
8 .........f............
9 ......................
0 ......................
1 ......................
2 ......................
3 ...................f..
4 ......................
5 .............r........
6 ......................
7 ......................

Turn = 25.
  0123456789012345678901
0 ......................
1 ...........t..........
2 ......................
3 ......................
4 ......................
5 ......................
6 ......................
7 ......................
8 ......................
9 ......................
0 h.....................
1 ......................
2 ......................
3 ......................
4 ....f.................
5 ......................
6 ......................
7 ......................
8 .........f............
9 ......................
0 ......................
1 ......................
2 ......................
3 ...................f..
4 ......................
5 ......................
6 ......................
7 ...........r..........

*** Darwin 18x23 ***
Turn = 0.
  01234567890123456789012
0 ....t..................
1 .........r........r....
2 .....................t.
3 .t.f.............f.....
4 ....................h..
5 .......................
6 .........t.............
7 .......................
8 ......h.......h........
9 .......................
0 .......................
1 .......................
2 .......................
3 .r.....................
4 ..h...................h
5 .......................
6 .......................
7 ......f...h..........r.

Turn = 1.
  01234567890123456789012
0 ....t..................
1 .......................
2 .........r........r..t.
3 .t.f.............f..h..
4 .......................
5 .......................
6 .........t.............
7 .......................
8 .......h.....h.........
9 .......................
0 .......................
1 .......................
2 .......................
3 ......................h
4 .rh....................
5 .......................
6 .......................
7 ......f...h.........r..

Turn = 2.
  01234567890123456789012
0 ....t..................
1 .......................
2 ....................ht.
3 .t.f.....r.......fr....
4 .......................
5 .......................
6 .........t.............
7 .......................
8 ........h...h..........
9 .......................
0 .......................
1 .......................
2 ......................h
3 .......................
4 .h.....................
5 .r.....................
6 .......................
7 ......f...h........r...

Turn = 3.
  01234567890123456789012
0 ....t..................
1 ....................h..
2 .....................t.
3 .t.f.............f.....
4 .........r........r....
5 .......................
6 .........t.............
7 .......................
8 .........h.h...........
9 .......................
0 .......................
1 ......................h
2 .......................
3 .......................
4 h......................
5 .......................
6 .r.....................
7 ......f...h.......r....

Turn = 4.
  01234567890123456789012
0 ....t...............h..
1 .......................
2 .....................t.
3 .t.f.............f.....
4 .......................
5 .........r........r....
6 .........t.............
7 .......................
8 ..........hh...........
9 .......................
0 ......................h
1 .......................
2 .......................
3 .......................
4 h......................
5 .......................
6 .......................
7 .r....f...h......r.....

Turn = 5.
  01234567890123456789012
0 ....t...............h..
1 .......................
2 .....................t.
3 .t.f.............f.....
4 .......................
5 .........r.............
6 .........r........r....
7 .......................
8 ..........hh...........
9 ......................h
0 .......................
1 .......................
2 .......................
3 .......................
4 h......................
5 .......................
6 .......................
7 .r....f...h.....r......

Turn = 6.
  01234567890123456789012
0 ....t...............h..
1 .......................
2 .....................t.
3 .t.f.............f.....
4 .......................
5 .........r.............
6 ..........r............
7 ..................r....
8 ..........hh..........h
9 .......................
0 .......................
1 .......................
2 .......................
3 .......................
4 h......................
5 .......................
6 .......................
7 ..r...f...h....r.......

Turn = 7.
  01234567890123456789012
0 ....t...............h..
1 .......................
2 .....................t.
3 .t.f.............f.....
4 .......................
5 ........r..............
6 ...........r...........
7 ......................h
8 ..........hh......r....
9 .......................
0 .......................
1 .......................
2 .......................
3 .......................
4 h......................
5 .......................
6 .......................
7 ...r..f...h...r........

Turn = 8.
  01234567890123456789012
0 ....t...............h..
1 .......................
2 .....................t.
3 .t.f.............f.....
4 .......................
5 .......r...............
6 ............r.........h
7 .......................
8 ..........hh...........
9 ..................r....
0 .......................
1 .......................
2 .......................
3 .......................
4 h......................
5 .......................
6 .......................
7 ....r.f...h..r.........

Turn = 9.
  01234567890123456789012
0 ....t...............h..
1 .......................
2 .....................t.
3 .t.f.............f.....
4 .......................
5 ......r...............h
6 .............r.........
7 .......................
8 ..........hh...........
9 .......................
0 ..................r....
1 .......................
2 .......................
3 .......................
4 h......................
5 .......................
6 .......................
7 .....rf...h.r..........

Turn = 10.
  01234567890123456789012
0 ....t...............h..
1 .......................
2 .....................t.
3 .t.f.............f.....
4 ......................h
5 .....r.................
6 ..............r........
7 .......................
8 ..........hh...........
9 .......................
0 .......................
1 ..................r....
2 .......................
3 .......................
4 h......................
5 .......................
6 ......r................
7 .....r....hr...........

Turn = 11.
  01234567890123456789012
0 ....t...............h..
1 .......................
2 .....................t.
3 .t.f.............f....h
4 .......................
5 ....r..................
6 ...............r.......
7 .......................
8 ..........hh...........
9 .......................
0 .......................
1 .......................
2 ..................r....
3 .......................
4 h......................
5 ......r................
6 .......................
7 ......r...rr...........

Turn = 12.
  01234567890123456789012
0 ....t...............h..
1 .......................
2 .....................th
3 .t.f.............f.....
4 .......................
5 ...r...................
6 ................r......
7 .......................
8 ..........hh...........
9 .......................
0 .......................
1 .......................
2 .......................
3 ..................r....
4 h.....r................
5 .......................
6 .......................
7 .......r..rr...........

Turn = 13.
  01234567890123456789012
0 ....t...............h..
1 .......................
2 .....................tt
3 .t.f.............f.....
4 .......................
5 ..r....................
6 .................r.....
7 .......................
8 ..........hh...........
9 .......................
0 .......................
1 .......................
2 .......................
3 ......r................
4 h.................r....
5 .......................
6 ...........r...........
7 ........rr.............

*** Darwin 16x11 ***
Turn = 0.
  01234567890
0 .......r...
1 ...........
2 ...fh......
3 ...........
4 ...........
5 ...........
6 .f.........
7 ...........
8 ...........
9 .....t.....
0 ...........
1 ...........
2 .....f.....
3 .........f.
4 ...........
5 r.........h

Turn = 5.
  01234567890
0 ...........
1 ...........
2 ...fh......
3 ...........
4 ...........
5 .......r...
6 .f.........
7 ...........
8 ...........
9 .....t.....
0 ..........h
1 r..........
2 .....f.....
3 .........f.
4 ...........
5 ...........

Turn = 10.
  01234567890
0 ...........
1 ...........
2 ...fh......
3 ...........
4 ...........
5 ..........h
6 rf.........
7 ...........
8 ...........
9 .....t.....
0 .......r...
1 ...........
2 .....f.....
3 .........f.
4 ...........
5 ...........

Turn = 15.
  01234567890
0 ..........h
1 r..........
2 ...fh......
3 ...........
4 ...........
5 ...........
6 .f.........
7 ...........
8 ...........
9 .....t.....
0 ...........
1 ...........
2 .....f.....
3 .........f.
4 ...........
5 .......r...

Turn = 20.
  01234567890
0 ...r......h
1 ...........
2 ...fh......
3 ...........
4 ...........
5 ...........
6 .f.........
7 ...........
8 ...........
9 .....t.....
0 ...........
1 ...........
2 .....f.....
3 .........f.
4 ...........
5 ..........r

Turn = 25.
  01234567890
0 ........r.h
1 ...........
2 ...fh......
3 ...........
4 ...........
5 ...........
6 .f.........
7 ...........
8 ...........
9 .....t.....
0 ...........
1 ...........
2 .....f.....
3 .........f.
4 ...........
5 ......r....

Turn = 30.
  01234567890
0 .........rr
1 ...........
2 ...fh......
3 ...........
4 ...........
5 ...........
6 .f.........
7 ...........
8 ...........
9 .....t.....
0 ...........
1 ...........
2 .....f.....
3 .........f.
4 ...........
5 .r.........

*** Darwin 19x23 ***
Turn = 0.
  01234567890123456789012
0 .......................
1 .......................
2 .......................
3 .......................
4 .f.....................
5 ......r................
6 .......................
7 .......................
8 ...........t...........
9 .......................
0 .......................
1 .......................
2 .......................
3 .......................
4 ..t.f..................
5 ............r..........
6 .......................
7 t......................
8 .......................

Turn = 1.
  01234567890123456789012
0 .......................
1 .......................
2 .......................
3 .......................
4 .f.....................
5 .....r.................
6 .......................
7 .......................
8 ...........t...........
9 .......................
0 .......................
1 .......................
2 .......................
3 .......................
4 ..t.f..................
5 .............r.........
6 .......................
7 t......................
8 .......................

Turn = 2.
  01234567890123456789012
0 .......................
1 .......................
2 .......................
3 .......................
4 .f.....................
5 ....r..................
6 .......................
7 .......................
8 ...........t...........
9 .......................
0 .......................
1 .......................
2 .......................
3 .......................
4 ..t.f..................
5 ..............r........
6 .......................
7 t......................
8 .......................

Turn = 3.
  01234567890123456789012
0 .......................
1 .......................
2 .......................
3 .......................
4 .f.....................
5 ...r...................
6 .......................
7 .......................
8 ...........t...........
9 .......................
0 .......................
1 .......................
2 .......................
3 .......................
4 ..t.f..................
5 ...............r.......
6 .......................
7 t......................
8 .......................

Turn = 4.
  01234567890123456789012
0 .......................
1 .......................
2 .......................
3 .......................
4 .f.....................
5 ..r....................
6 .......................
7 .......................
8 ...........t...........
9 .......................
0 .......................
1 .......................
2 .......................
3 .......................
4 ..t.f..................
5 ................r......
6 .......................
7 t......................
8 .......................

Turn = 5.
  01234567890123456789012
0 .......................
1 .......................
2 .......................
3 .......................
4 .f.....................
5 .r.....................
6 .......................
7 .......................
8 ...........t...........
9 .......................
0 .......................
1 .......................
2 .......................
3 .......................
4 ..t.f..................
5 .................r.....
6 .......................
7 t......................
8 .......................

Turn = 6.
  01234567890123456789012
0 .......................
1 .......................
2 .......................
3 .......................
4 .f.....................
5 r......................
6 .......................
7 .......................
8 ...........t...........
9 .......................
0 .......................
1 .......................
2 .......................
3 .......................
4 ..t.f..................
5 ..................r....
6 .......................
7 t......................
8 .......................

Turn = 7.
  01234567890123456789012
0 .......................
1 .......................
2 .......................
3 .......................
4 .f.....................
5 r......................
6 .......................
7 .......................
8 ...........t...........
9 .......................
0 .......................
1 .......................
2 .......................
3 .......................
4 ..t.f..................
5 ...................r...
6 .......................
7 t......................
8 .......................

Turn = 8.
  01234567890123456789012
0 .......................
1 .......................
2 .......................
3 .......................
4 rf.....................
5 .......................
6 .......................
7 .......................
8 ...........t...........
9 .......................
0 .......................
1 .......................
2 .......................
3 .......................
4 ..t.f..................
5 ....................r..
6 .......................
7 t......................
8 .......................

Turn = 9.
  01234567890123456789012
0 .......................
1 .......................
2 .......................
3 r......................
4 .f.....................
5 .......................
6 .......................
7 .......................
8 ...........t...........
9 .......................
0 .......................
1 .......................
2 .......................
3 .......................
4 ..t.f..................
5 .....................r.
6 .......................
7 t......................
8 .......................

Turn = 10.
  01234567890123456789012
0 .......................
1 .......................
2 r......................
3 .......................
4 .f.....................
5 .......................
6 .......................
7 .......................
8 ...........t...........
9 .......................
0 .......................
1 .......................
2 .......................
3 .......................
4 ..t.f..................
5 ......................r
6 .......................
7 t......................
8 .......................

Turn = 11.
  01234567890123456789012
0 .......................
1 r......................
2 .......................
3 .......................
4 .f.....................
5 .......................
6 .......................
7 .......................
8 ...........t...........
9 .......................
0 .......................
1 .......................
2 .......................
3 .......................
4 ..t.f..................
5 ......................r
6 .......................
7 t......................
8 .......................

Turn = 12.
  01234567890123456789012
0 r......................
1 .......................
2 .......................
3 .......................
4 .f.....................
5 .......................
6 .......................
7 .......................
8 ...........t...........
9 .......................
0 .......................
1 .......................
2 .......................
3 .......................
4 ..t.f.................r
5 .......................
6 .......................
7 t......................
8 .......................

Turn = 13.
  01234567890123456789012
0 r......................
1 .......................
2 .......................
3 .......................
4 .f.....................
5 .......................
6 .......................
7 .......................
8 ...........t...........
9 .......................
0 .......................
1 .......................
2 .......................
3 ......................r
4 ..t.f..................
5 .......................
6 .......................
7 t......................
8 .......................

Turn = 14.
  01234567890123456789012
0 .r.....................
1 .......................
2 .......................
3 .......................
4 .f.....................
5 .......................
6 .......................
7 .......................
8 ...........t...........
9 .......................
0 .......................
1 .......................
2 ......................r
3 .......................
4 ..t.f..................
5 .......................
6 .......................
7 t......................
8 .......................

Turn = 15.
  01234567890123456789012
0 ..r....................
1 .......................
2 .......................
3 .......................
4 .f.....................
5 .......................
6 .......................
7 .......................
8 ...........t...........
9 .......................
0 .......................
1 ......................r
2 .......................
3 .......................
4 ..t.f..................
5 .......................
6 .......................
7 t......................
8 .......................

Turn = 16.
  01234567890123456789012
0 ...r...................
1 .......................
2 .......................
3 .......................
4 .f.....................
5 .......................
6 .......................
7 .......................
8 ...........t...........
9 .......................
0 ......................r
1 .......................
2 .......................
3 .......................
4 ..t.f..................
5 .......................
6 .......................
7 t......................
8 .......................

Turn = 17.
  01234567890123456789012
0 ....r..................
1 .......................
2 .......................
3 .......................
4 .f.....................
5 .......................
6 .......................
7 .......................
8 ...........t...........
9 ......................r
0 .......................
1 .......................
2 .......................
3 .......................
4 ..t.f..................
5 .......................
6 .......................
7 t......................
8 .......................

Turn = 18.
  01234567890123456789012
0 .....r.................
1 .......................
2 .......................
3 .......................
4 .f.....................
5 .......................
6 .......................
7 .......................
8 ...........t..........r
9 .......................
0 .......................
1 .......................
2 .......................
3 .......................
4 ..t.f..................
5 .......................
6 .......................
7 t......................
8 .......................
